cob_date,spot_rate,monthly_average_spot,eom_spot
26 Feb 24,1.1689,,
23 Feb 24,1.1715,,
22 Feb 24,1.1675,,
21 Feb 24,1.1672,,
20 Feb 24,1.17,,
19 Feb 24,1.1689,,
16 Feb 24,1.1683,,
15 Feb 24,1.1694,,
14 Feb 24,1.1705,,
13 Feb 24,1.1758,,
12 Feb 24,1.1717,,
09 Feb 24,1.1712,,
08 Feb 24,1.1713,,
07 Feb 24,1.1743,,
06 Feb 24,1.1707,,
05 Feb 24,1.1675,,
02 Feb 24,1.1717,,
01 Feb 24,1.1714,,
31 Jan 24,1.1723,1.1653,1.1723
30 Jan 24,1.1688,,
29 Jan 24,1.1742,,
26 Jan 24,1.1711,,
25 Jan 24,1.1725,,
24 Jan 24,1.1699,,
23 Jan 24,1.1694,,
22 Jan 24,1.1687,,
19 Jan 24,1.1652,,
18 Jan 24,1.1677,,
17 Jan 24,1.1667,,
16 Jan 24,1.1635,,
15 Jan 24,1.1626,,
12 Jan 24,1.1637,,
11 Jan 24,1.1615,,
10 Jan 24,1.1612,,
09 Jan 24,1.1636,,
08 Jan 24,1.1623,,
05 Jan 24,1.1615,,
04 Jan 24,1.1591,,
03 Jan 24,1.158,,
02 Jan 24,1.1536,,
31 Dec 23,,1.1604,1.1539
29 Dec 23,1.1539,,
28 Dec 23,1.1497,,
27 Dec 23,1.1514,,
22 Dec 23,1.1548,,
21 Dec 23,1.1515,,
20 Dec 23,1.1544,,
19 Dec 23,1.1596,,
18 Dec 23,1.1586,,
15 Dec 23,1.1633,,
14 Dec 23,1.1606,,
13 Dec 23,1.1603,,
12 Dec 23,1.1648,,
11 Dec 23,1.1681,,
08 Dec 23,1.1652,,
07 Dec 23,1.166,,
06 Dec 23,1.1671,,
05 Dec 23,1.1672,,
04 Dec 23,1.1661,,
01 Dec 23,1.1658,,
30 Nov 23,1.1601,1.1492,1.1601
29 Nov 23,1.1569,,
28 Nov 23,1.1549,,
27 Nov 23,1.1531,,
24 Nov 23,1.153,,
23 Nov 23,1.1491,,
22 Nov 23,1.1467,,
21 Nov 23,1.1472,,
20 Nov 23,1.142,,
17 Nov 23,1.1418,,
16 Nov 23,1.1438,,
15 Nov 23,1.1453,,
14 Nov 23,1.1494,,
13 Nov 23,1.1463,,
10 Nov 23,1.1431,,
09 Nov 23,1.1467,,
08 Nov 23,1.1478,,
07 Nov 23,1.1512,,
06 Nov 23,1.1535,,
03 Nov 23,1.1528,,
02 Nov 23,1.1466,,
01 Nov 23,1.1507,,
31 Oct 23,1.1483,1.1523,1.1483
30 Oct 23,1.1446,,
27 Oct 23,1.1475,,
26 Oct 23,1.1502,,
25 Oct 23,1.147,,
24 Oct 23,1.1489,,
23 Oct 23,1.1486,,
20 Oct 23,1.1475,,
19 Oct 23,1.149,,
18 Oct 23,1.1526,,
17 Oct 23,1.1519,,
16 Oct 23,1.1554,,
13 Oct 23,1.1558,,
12 Oct 23,1.157,,
11 Oct 23,1.1589,,
10 Oct 23,1.1566,,
09 Oct 23,1.1579,,
06 Oct 23,1.1566,,
05 Oct 23,1.1547,,
04 Oct 23,1.1545,,
03 Oct 23,1.1532,,
02 Oct 23,1.1548,,
30 Sep 23,,1.1605,1.1528
29 Sep 23,1.1528,,
28 Sep 23,1.1548,,
27 Sep 23,1.1541,,
26 Sep 23,1.1496,,
25 Sep 23,1.1533,,
22 Sep 23,1.1507,,
21 Sep 23,1.1527,,
20 Sep 23,1.1566,,
19 Sep 23,1.1601,,
18 Sep 23,1.1597,,
15 Sep 23,1.1623,,
14 Sep 23,1.1642,,
13 Sep 23,1.1632,,
12 Sep 23,1.1636,,
11 Sep 23,1.1658,,
08 Sep 23,1.1651,,
07 Sep 23,1.1657,,
06 Sep 23,1.1664,,
05 Sep 23,1.1724,,
04 Sep 23,1.1701,,
01 Sep 23,1.1676,,
31 Aug 23,1.1675,1.1643,1.1675
30 Aug 23,1.1645,,
29 Aug 23,1.1624,,
25 Aug 23,1.1654,,
24 Aug 23,1.1668,,
23 Aug 23,1.1695,,
22 Aug 23,1.1733,,
21 Aug 23,1.1691,,
18 Aug 23,1.1696,,
17 Aug 23,1.1715,,
16 Aug 23,1.1692,,
15 Aug 23,1.1648,,
14 Aug 23,1.1612,,
11 Aug 23,1.1587,,
10 Aug 23,1.1559,,
09 Aug 23,1.1594,,
08 Aug 23,1.1623,,
07 Aug 23,1.1608,,
04 Aug 23,1.1571,,
03 Aug 23,1.1613,,
02 Aug 23,1.1611,,
01 Aug 23,1.1624,,
31 Jul 23,1.1667,1.1651,1.1667
28 Jul 23,1.1656,,
27 Jul 23,1.1689,,
26 Jul 23,1.168,,
25 Jul 23,1.164,,
24 Jul 23,1.1568,,
21 Jul 23,1.1557,,
20 Jul 23,1.1531,,
19 Jul 23,1.1514,,
18 Jul 23,1.1641,,
17 Jul 23,1.1647,,
14 Jul 23,1.1667,,
13 Jul 23,1.1713,,
12 Jul 23,1.1688,,
11 Jul 23,1.1734,,
10 Jul 23,1.1677,,
07 Jul 23,1.1713,,
06 Jul 23,1.1681,,
05 Jul 23,1.1694,,
04 Jul 23,1.1673,,
03 Jul 23,1.1634,,
30 Jun 23,1.1654,1.165,1.1654
29 Jun 23,1.1588,,
28 Jun 23,1.157,,
27 Jun 23,1.164,,
26 Jun 23,1.1651,,
23 Jun 23,1.1678,,
22 Jun 23,1.1627,,
21 Jun 23,1.1621,,
20 Jun 23,1.1682,,
19 Jun 23,1.1715,,
16 Jun 23,1.1726,,
15 Jun 23,1.1679,,
14 Jun 23,1.1696,,
13 Jun 23,1.1668,,
12 Jun 23,1.164,,
09 Jun 23,1.1695,,
08 Jun 23,1.1639,,
07 Jun 23,1.1638,,
06 Jun 23,1.1606,,
05 Jun 23,1.1586,,
02 Jun 23,1.1642,,
01 Jun 23,1.1663,,
31 May 23,1.1624,1.1495,1.1624
30 May 23,1.1569,,
26 May 23,1.1519,,
25 May 23,1.1524,,
24 May 23,1.149,,
23 May 23,1.1523,,
22 May 23,1.1503,,
19 May 23,1.1529,,
18 May 23,1.1522,,
17 May 23,1.152,,
16 May 23,1.1498,,
15 May 23,1.1514,,
12 May 23,1.1484,,
11 May 23,1.147,,
10 May 23,1.15,,
09 May 23,1.151,,
05 May 23,1.1463,,
04 May 23,1.1428,,
03 May 23,1.1339,,
02 May 23,1.1361,,
30 Apr 23,,1.1347,1.1385
28 Apr 23,1.1385,,
27 Apr 23,1.1331,,
26 Apr 23,1.1291,,
25 Apr 23,1.1298,,
24 Apr 23,1.13,,
21 Apr 23,1.1299,,
20 Apr 23,1.1347,,
19 Apr 23,1.136,,
18 Apr 23,1.1337,,
17 Apr 23,1.1328,,
14 Apr 23,1.1306,,
13 Apr 23,1.1325,,
12 Apr 23,1.1355,,
11 Apr 23,1.1392,,
06 Apr 23,1.1384,,
05 Apr 23,1.1412,,
04 Apr 23,1.1411,,
03 Apr 23,1.1386,,
31 Mar 23,1.1375,1.133,1.1375
30 Mar 23,1.1345,,
29 Mar 23,1.1367,,
28 Mar 23,1.1378,,
27 Mar 23,1.1384,,
24 Mar 23,1.136,,
23 Mar 23,1.1316,,
22 Mar 23,1.1333,,
21 Mar 23,1.1324,,
20 Mar 23,1.1429,,
17 Mar 23,1.1403,,
16 Mar 23,1.1401,,
15 Mar 23,1.1416,,
14 Mar 23,1.1328,,
13 Mar 23,1.1331,,
10 Mar 23,1.1322,,
09 Mar 23,1.1247,,
08 Mar 23,1.1216,,
07 Mar 23,1.1218,,
06 Mar 23,1.1277,,
03 Mar 23,1.13,,
02 Mar 23,1.1269,,
01 Mar 23,1.1251,,
28 Feb 23,1.1415,1.1289,1.1415
27 Feb 23,1.1348,,
24 Feb 23,1.1328,,
23 Feb 23,1.1348,,
22 Feb 23,1.1355,,
21 Feb 23,1.1362,,
20 Feb 23,1.1257,,
17 Feb 23,1.1247,,
16 Feb 23,1.1253,,
15 Feb 23,1.1243,,
14 Feb 23,1.1344,,
13 Feb 23,1.1321,,
10 Feb 23,1.1308,,
09 Feb 23,1.1307,,
08 Feb 23,1.1262,,
07 Feb 23,1.1229,,
06 Feb 23,1.1194,,
03 Feb 23,1.1148,,
02 Feb 23,1.1232,,
01 Feb 23,1.1287,,
31 Jan 23,1.1331,1.1352,1.1331
30 Jan 23,1.1387,,
27 Jan 23,1.1401,,
26 Jan 23,1.1384,,
25 Jan 23,1.1338,,
24 Jan 23,1.1324,,
23 Jan 23,1.1385,,
20 Jan 23,1.142,,
19 Jan 23,1.1454,,
18 Jan 23,1.144,,
17 Jan 23,1.1368,,
16 Jan 23,1.1276,,
13 Jan 23,1.128,,
12 Jan 23,1.1258,,
11 Jan 23,1.1276,,
10 Jan 23,1.1324,,
09 Jan 23,1.1353,,
06 Jan 23,1.1363,,
05 Jan 23,1.1294,,
04 Jan 23,1.1359,,
03 Jan 23,1.1376,,